{
    "npm.binPath":"/usr/bin/npm" ,
    "python.jediPath": "/usr/lib/python3.10/site-packages/",
    "python.envFile" : "/usr/lib/python3.10/",
    "languageserver": {
        "ccls": {
            "command": "ccls",
            "filetypes": [
                "c",
                "cpp",
                "objc",
                "objcpp"
            ],
            "rootPatterns": [
                ".ccls",
                "compile_commands.json",
                ".vim/",
                ".git/",
                ".hg/"
            ],
            "initializationOptions": {
                "cache": {
                    "directory": "/tmp/ccls"
                }
            }
        }
    }
}

